<?xml version="1.0" encoding="UTF-8"?>
<robot generator="Robot 4.1 (Python 3.9.6 on darwin)" generated="20210910 00:40:05.880" rpa="false" schemaversion="2">
<suite id="s1" name="Filter Comics" source="/Users/laylla.rodrigues/testes_tecnicos/spec/filter_comics.robot">
<test id="s1-t1" name="Listando comics de um personagem especifico">
<kw name="Listing a specific comic" library="Steps">
<kw name="GET" library="RequestsLibrary">
<var>${ResponseComics}</var>
<arg>${host}${comics}${limit_comic}</arg>
<arg>${headers}</arg>
<doc>Sends a GET request.</doc>
<msg timestamp="20210910 00:40:08.533" level="INFO">GET Request : url=https://gateway.marvel.com/v1/public/characters/1009368/comics?limit=1&amp;ts=1631150721003&amp;apikey=e9e22f92431df9f73920f281caabb68c&amp;hash=f0b3298fa4957047893445f8d19881b8 
 path_url=/v1/public/characters/1009368/comics?limit=1&amp;ts=1631150721003&amp;apikey=e9e22f92431df9f73920f281caabb68c&amp;hash=f0b3298fa4957047893445f8d19881b8 
 headers={'User-Agent': 'python-requests/2.26.0', 'Accept-Encoding': 'gzip, deflate', 'Accept': '*/*', 'Connection': 'keep-alive'} 
 body=None 
 </msg>
<msg timestamp="20210910 00:40:08.534" level="INFO">GET Response : url=https://gateway.marvel.com/v1/public/characters/1009368/comics?limit=1&amp;ts=1631150721003&amp;apikey=e9e22f92431df9f73920f281caabb68c&amp;hash=f0b3298fa4957047893445f8d19881b8 
 status=200, reason=OK 
 headers={'Content-Encoding': 'gzip', 'ETag': 'b8558136b4609ffa4d7f10eb72e3d908ca4b37af', 'Content-Type': 'application/json; charset=utf-8', 'Date': 'Fri, 10 Sep 2021 03:42:42 GMT', 'Connection': 'keep-alive', 'Transfer-Encoding': 'chunked'} 
 body={"code":200,"status":"Ok","copyright":"© 2021 MARVEL","attributionText":"Data provided by Marvel. © 2021 MARVEL","attributionHTML":"&lt;a href=\"http://marvel.com\"&gt;Data provided by Marvel. © 2021 MARVEL&lt;/a&gt;","etag":"b8558136b4609ffa4d7f10eb72e3d908ca4b37af","data":{"offset":0,"limit":1,"total":2584,"count":1,"results":[{"id":27238,"digitalId":0,"title":"Wolverine Saga (2009) #7","issueNumber":7,"variantDescription":"","description":null,"modified":"-0001-11-30T00:00:00-0500","isbn":"","upc":"5960606814-00711","diamondCode":"","ean":"","issn":"","format":"Comic","pageCount":32,"textObjects":[],"resourceURI":"http://gateway.marvel.com/v1/public/comics/27238","urls":[{"type":"detail","url":"http://marvel.com/comics/issue/27238/wolverine_saga_2009_7?utm_campaign=apiRef&amp;utm_source=e9e22f92431df9f73920f281caabb68c"}],"series":{"resourceURI":"http://gateway.marvel.com/v1/public/series/8086","name":"Wolverine Saga (2009)"},"variants":[],"collections":[],"collectedIssues":[],"dates":[{"type":"onsaleDate","date":"2029-12-31T00:00:00-0500"},{"type":"focDate","date":"2009-06-11T00:00:00-0400"}],"prices":[{"type":"printPrice","price":0}],"thumbnail":{"path":"http://i.annihil.us/u/prod/marvel/i/mg/b/40/image_not_available","extension":"jpg"},"images":[],"creators":{"available":1,"collectionURI":"http://gateway.marvel.com/v1/public/comics/27238/creators","items":[{"resourceURI":"http://gateway.marvel.com/v1/public/creators/4430","name":"Jeff Youngquist","role":"editor"}],"returned":1},"characters":{"available":2,"collectionURI":"http://gateway.marvel.com/v1/public/comics/27238/characters","items":[{"resourceURI":"http://gateway.marvel.com/v1/public/characters/1009368","name":"Iron Man"},{"resourceURI":"http://gateway.marvel.com/v1/public/characters/1009718","name":"Wolverine"}],"returned":2},"stories":{"available":2,"collectionURI":"http://gateway.marvel.com/v1/public/comics/27238/stories","items":[{"resourceURI":"http://gateway.marvel.com/v1/public/stories/59792","name":"Cover #59792","type":"cover"},{"resourceURI":"http://gateway.marvel.com/v1/public/stories/59793","name":"Interior #59793","type":"interiorStory"}],"returned":2},"events":{"available":0,"collectionURI":"http://gateway.marvel.com/v1/public/comics/27238/events","items":[],"returned":0}}]}} 
 </msg>
<msg timestamp="20210910 00:40:08.534" level="INFO">${ResponseComics} = &lt;Response [200]&gt;</msg>
<status status="PASS" starttime="20210910 00:40:06.065" endtime="20210910 00:40:08.534"/>
</kw>
<kw name="Set Suite Variable" library="BuiltIn">
<arg>${ResponseComics}</arg>
<doc>Makes a variable available everywhere within the scope of the current suite.</doc>
<msg timestamp="20210910 00:40:08.535" level="INFO">${ResponseComics} = &lt;Response [200]&gt;</msg>
<status status="PASS" starttime="20210910 00:40:08.534" endtime="20210910 00:40:08.535"/>
</kw>
<status status="PASS" starttime="20210910 00:40:06.064" endtime="20210910 00:40:08.535"/>
</kw>
<status status="PASS" starttime="20210910 00:40:06.063" endtime="20210910 00:40:08.535"/>
</test>
<test id="s1-t2" name="Validando status code após filtro">
<kw name="Validating comics status code" library="Steps">
<arg>${expected_status} </arg>
<kw name="Should Be Equal As Strings" library="BuiltIn">
<arg>${ResponseComics.status_code}</arg>
<arg>${expected_status} </arg>
<doc>Fails if objects are unequal after converting them to strings.</doc>
<msg timestamp="20210910 00:40:08.538" level="INFO">Argument types are:
&lt;class 'int'&gt;
&lt;type 'unicode'&gt;</msg>
<status status="PASS" starttime="20210910 00:40:08.537" endtime="20210910 00:40:08.538"/>
</kw>
<kw name="Log" library="BuiltIn">
<arg>Status Code Retornado: ${ResponseComics.status_code} -- Status Code Esperado: ${expected_status} </arg>
<doc>Logs the given message with the given level.</doc>
<msg timestamp="20210910 00:40:08.539" level="INFO">Status Code Retornado: 200 -- Status Code Esperado: 200</msg>
<status status="PASS" starttime="20210910 00:40:08.538" endtime="20210910 00:40:08.539"/>
</kw>
<status status="PASS" starttime="20210910 00:40:08.536" endtime="20210910 00:40:08.539"/>
</kw>
<status status="PASS" starttime="20210910 00:40:08.536" endtime="20210910 00:40:08.540"/>
</test>
<test id="s1-t3" name="Validando se houve retorno de comics apenas de um personagem">
<kw name="Checking comics returns" library="Steps">
<kw name="Dictionary Should Contain Item" library="Collections">
<arg>${ResponseComics.json()["data"]}</arg>
<arg>count</arg>
<arg>1</arg>
<doc>An item of ``key`` / ``value`` must be found in a ``dictionary``.</doc>
<status status="PASS" starttime="20210910 00:40:08.543" endtime="20210910 00:40:08.545"/>
</kw>
<status status="PASS" starttime="20210910 00:40:08.542" endtime="20210910 00:40:08.545"/>
</kw>
<status status="PASS" starttime="20210910 00:40:08.541" endtime="20210910 00:40:08.546"/>
</test>
<test id="s1-t4" name="Verificando personagem filtrado">
<kw name="Verificando se filtro retornou comics sobre o Wolverine" library="Steps">
<kw name="Should Contain" library="BuiltIn">
<arg>${ResponseComics.json()["data"]["results"][0]}</arg>
<arg>title</arg>
<arg>Wolverine Saga (2009) #7</arg>
<doc>Fails if ``container`` does not contain ``item`` one or more times.</doc>
<status status="PASS" starttime="20210910 00:40:08.551" endtime="20210910 00:40:08.552"/>
</kw>
<status status="PASS" starttime="20210910 00:40:08.550" endtime="20210910 00:40:08.553"/>
</kw>
<status status="PASS" starttime="20210910 00:40:08.547" endtime="20210910 00:40:08.554"/>
</test>
<doc>Filtra comics de um personagem especifico na API MARVEL</doc>
<status status="PASS" starttime="20210910 00:40:05.883" endtime="20210910 00:40:08.556"/>
</suite>
<statistics>
<total>
<stat pass="4" fail="0" skip="0">All Tests</stat>
</total>
<tag>
</tag>
<suite>
<stat pass="4" fail="0" skip="0" id="s1" name="Filter Comics">Filter Comics</stat>
</suite>
</statistics>
<errors>
</errors>
</robot>
